homework4Baron
…
newgirl_freq <- newgirl_words %>% 
  group_by(timestamp) %>%
  count(word, sort = TRUE)

newgirl_idf <- newgirl_freq %>% 
  bind_tf_idf(word, timestamp, n)

newgirl_idf %>%
  select(word, tf_idf) %>% 
  arrange(desc(tf_idf))

Adding missing grouping variables: `timestamp`

# A tibble: 1,582 × 3
# Groups:   timestamp [377]
    timestamp word       tf_idf
        <dbl> <chr>       <dbl>
 1 1678884275 snap         5.93
 2 1680052919 tran         5.93
 3 1677739775 dramatic     5.93
 4 1678547946 typical      5.93
 5 1678601709 daddy        5.93
 6 1678645447 box          5.93
 7 1678667276 dvds         5.93
 8 1678667734 noteworthy   5.93
 9 1678667898 explain      5.93
10 1678842942 zombie       5.93
# … with 1,572 more rows
…
